LINE-CONDUCTOR TABLE AFTER SORTING AND INITIAL PROCESSING.
TABLE   PHASE   SKIN EFFECT    RESISTANCE   REACTANCE-DATA SPECIFICATION     DIAMETER   HORIZONTAL   AVG HEIGHT   CONDUCTOR
  ROW  NUMBER        R-TYPE    R (OHM/MI)   X-TYPE      X(OHM/MI) OR GMR     (INCHES)     X (FEET)     Y (FEET)        NAME
    1       1       0.00000       0.00100        3              1.000000      0.99400        0.000       62.667            
    2       2       0.00000       0.00200        3              1.000000      0.52500        6.000       83.333            
    3       2       0.00000       0.00200        3              1.000000      0.52500       40.000       83.333            

FOLLOWING MATRICES ARE FOR EARTH RESISTIVITY= 1.00 OHM-M AND FREQUENCY= 500000.00 HZ. CORRECTION FACTOR= 0.000000

INVERTED CAPACITANCE MATRIX (DARAF-MILES   )
FOR THE SYSTEM OF PHYSICAL CONDUCTORS
ROWS AND COLUMNS PROCEED IN SAME ORDER AS SORTED INPUT
  1   8.95216e+07
  2   2.13942e+07   9.98348e+07
  3   1.35439e+07   1.79826e+07   9.98348e+07

CAPACITANCE MATRIX (FARAD/MILES   )
FOR THE SYSTEM OF PHYSICAL CONDUCTORS
ROWS AND COLUMNS PROCEED IN SAME ORDER AS SORTED INPUT
  1   1.19098e-08
  2  -2.33701e-09   1.08110e-08
  3  -1.19476e-09  -1.63028e-09   1.04723e-08

INVERTED CAPACITANCE MATRIX (DARAF-MILES   )
FOR THE SYSTEM OF EQUIVALENT PHASE CONDUCTORS
ROWS AND COLUMNS PROCEED IN SAME ORDER AS SORTED INPUT
  1   8.91452e+07
  2   1.74691e+07   5.89087e+07

INVERTED CAPACITANCE MATRIX (DARAF-MILES   )
FOR THE SYMMETRICAL COMPONENTS OF THE EQUIVALENT PHASE CONDUCTORS
THIS IS A TWO-PHASE LINE. ROWS AND COLUMNS PROCEED IN SEQUENCE 0,1
  0   9.14960e+07
  1   1.51182e+07   5.65579e+07

CAPACITANCE MATRIX (FARAD/MILES   )
FOR THE SYSTEM OF EQUIVALENT PHASE CONDUCTORS
ROWS AND COLUMNS PROCEED IN SAME ORDER AS SORTED INPUT
  1   1.19098e-08
  2  -3.53177e-09   1.80227e-08

CAPACITANCE MATRIX (FARAD/MILES   )
FOR THE SYMMETRICAL COMPONENTS OF THE EQUIVALENT PHASE CONDUCTORS
THIS IS A TWO-PHASE LINE. ROWS AND COLUMNS PROCEED IN SEQUENCE 0,1
  0   1.14345e-08
  1  -3.05650e-09   1.84980e-08

IMPEDANCE MATRIX (OHM/MILES   )
FOR THE SYSTEM OF PHYSICAL CONDUCTORS
ROWS AND COLUMNS PROCEED IN SAME ORDER AS SORTED INPUT
  1   1.00000e-03
      8.10468e+03
  2   0.00000e+00   2.00000e-03
      1.93689e+03   9.03836e+03
  3   0.00000e+00   0.00000e+00   2.00000e-03
      1.22617e+03   1.62803e+03   9.03836e+03

INVERTED IMPEDANCE MATRIX (MHO-MILES   )
FOR THE SYSTEM OF PHYSICAL CONDUCTORS
ROWS AND COLUMNS PROCEED IN SAME ORDER AS SORTED INPUT
  1   1.89867e-11
     -1.31551e-04
  2  -9.08567e-12   2.98347e-11
      2.58138e-05  -1.19415e-04
  3  -3.85946e-12  -8.12605e-12   2.75834e-11
      1.31969e-05   1.80075e-05  -1.15673e-04

IMPEDANCE MATRIX (OHM/MILES   )
FOR THE SYSTEM OF EQUIVALENT PHASE CONDUCTORS
ROWS AND COLUMNS PROCEED IN SAME ORDER AS SORTED INPUT
  1   1.00920e-03
      8.07060e+03
  2   0.00000e+00   1.00000e-03
      1.58153e+03   5.33319e+03

MODAL PARAMETERS AT FREQ =   5.00000e+05 HZ

MODE   RESISTANCE  REACTANCE  SUSCEPTANCE             SURGE IMPEDANCE(OHM)          VELOCITY  ATTENUATION
         OHM/MILE    OHM/MILE   S/MILE        REAL         IMAG       LOSSLESS     MILE/SEC  NEPER/MILE
   1     1.0075e-03  8.7930e+03  3.2346e-02  5.2139e+02 -2.9871e-05  5.2139e+02  1.8628e+05  9.6621e-07
   2     1.0016e-03  4.6104e+03  6.1691e-02  2.7337e+02 -2.9695e-05  2.7337e+02  1.8628e+05  1.8319e-06

EIGENVECTOR MATRIX TI FOR CURRENT TRANSFORMATION I(PHASE)=TI*I(MODE)
 REAL COMPONENTS, ROW BY ROW
    9.0643e-01 -4.1920e-01
    4.2237e-01  9.0790e-01

 IMAGINARY COMPONENTS, ROW BY ROW
    0.0000e+00  0.0000e+00
    0.0000e+00  0.0000e+00

 PHASE DOMAIN ZSURGE (REAL; THE IMAG. OF Ti IGNORED)
    4.7854e+02
    9.3773e+01  3.1623e+02

IMPEDANCE MATRIX (OHM/MILES   )
FOR THE SYMMETRICAL COMPONENTS OF THE EQUIVALENT PHASE CONDUCTORS
THIS IS A TWO-PHASE LINE. ROWS AND COLUMNS PROCEED IN SEQUENCE 0,1
  0   1.00460e-03
      8.28342e+03
  1   4.59923e-06   1.00460e-03
      1.36870e+03   5.12037e+03
SEQUENCE      SURGE IMPEDANCE       ATTENUATION   VELOCITY    WAVELENGTH   RESISTANCE    REACTANCE   SUSCEPTANCE
         MAGNITUDE(OHM) ANGLE(DEGR.)   DB/MILE      MILES/S       MILES      OHM/MILE     OHM/MILE     MHO/MILE
   ZERO    4.80200e+02 -3.47437e-06  9.08563e-06  1.82122e+05  3.64244e-01  1.00460e-03  8.28342e+03  3.59225e-02
 POSITIVE  2.96834e+02 -5.62062e-06  1.46982e-05  1.82122e+05  3.64244e-01  1.00460e-03  5.12037e+03  5.81132e-02

INVERTED IMPEDANCE MATRIX (MHO-MILES   )
FOR THE SYSTEM OF EQUIVALENT PHASE CONDUCTORS
ROWS AND COLUMNS PROCEED IN SAME ORDER AS SORTED INPUT
  1   1.89867e-11
     -1.31551e-04
  2  -1.29451e-11   4.11660e-11
      3.90108e-05  -1.99073e-04

INVERTED IMPEDANCE MATRIX (MHO-MILES   )
FOR THE SYMMETRICAL COMPONENTS OF THE EQUIVALENT PHASE CONDUCTORS
THIS IS A TWO-PHASE LINE. ROWS AND COLUMNS PROCEED IN SEQUENCE 0,1
  0   1.71313e-11
     -1.26301e-04
  1  -1.10896e-11   4.30215e-11
      3.37611e-05  -2.04323e-04
